Multi Cycle/datapath.vcd
$date
	Sat Jul 11 14:41:54 2020
$end
$version
	Icarus Verilog
$end
$timescale
	1s
$end
$scope module testbench $end
$var wire 32 ! writedata [31:0] $end
$var wire 1 " memwrite $end
$var wire 32 # dataadr [31:0] $end
$var reg 1 $ clk $end
$var reg 1 % reset $end
$scope module dut $end
$var wire 1 $ clk $end
$var wire 1 % reset $end
$var wire 32 & writedata [31:0] $end
$var wire 32 ' readdata [31:0] $end
$var wire 1 " memwrite $end
$var wire 32 ( adr [31:0] $end
$scope module mem $end
$var wire 1 $ clk $end
$var wire 32 ) rd [31:0] $end
$var wire 1 " we $end
$var wire 32 * wd [31:0] $end
$var wire 32 + a [31:0] $end
$upscope $end
$scope module mips $end
$var wire 1 $ clk $end
$var wire 32 , readdata [31:0] $end
$var wire 1 % reset $end
$var wire 1 - zero $end
$var wire 32 . writedata [31:0] $end
$var wire 1 / regwrite $end
$var wire 1 0 regdst $end
$var wire 2 1 pcsrc [1:0] $end
$var wire 1 2 pcen $end
$var wire 6 3 op [5:0] $end
$var wire 1 " memwrite $end
$var wire 1 4 memtoreg $end
$var wire 1 5 irwrite $end
$var wire 1 6 iord $end
$var wire 6 7 funct [5:0] $end
$var wire 2 8 alusrcb [1:0] $end
$var wire 1 9 alusrca $end
$var wire 4 : alucontrol [3:0] $end
$var wire 32 ; adr [31:0] $end
$scope module c $end
$var wire 1 $ clk $end
$var wire 1 2 pcen $end
$var wire 1 % reset $end
$var wire 1 - zero $end
$var wire 1 / regwrite $end
$var wire 1 0 regdst $end
$var wire 1 < pcwrite $end
$var wire 2 = pcsrc [1:0] $end
$var wire 6 > op [5:0] $end
$var wire 1 " memwrite $end
$var wire 1 4 memtoreg $end
$var wire 1 5 irwrite $end
$var wire 1 6 iord $end
$var wire 6 ? funct [5:0] $end
$var wire 1 @ branch $end
$var wire 2 A alusrcb [1:0] $end
$var wire 1 9 alusrca $end
$var wire 2 B aluop [1:0] $end
$var wire 4 C alucontrol [3:0] $end
$scope module ad $end
$var wire 6 D funct [5:0] $end
$var wire 2 E aluop [1:0] $end
$var reg 4 F alucontrol [3:0] $end
$upscope $end
$scope module md $end
$var wire 1 $ clk $end
$var wire 1 % reset $end
$var wire 1 / regwrite $end
$var wire 1 0 regdst $end
$var wire 1 < pcwrite $end
$var wire 2 G pcsrc [1:0] $end
$var wire 6 H op [5:0] $end
$var wire 1 " memwrite $end
$var wire 1 4 memtoreg $end
$var wire 1 5 irwrite $end
$var wire 1 6 iord $end
$var wire 1 @ branch $end
$var wire 2 I alusrcb [1:0] $end
$var wire 1 9 alusrca $end
$var wire 2 J aluop [1:0] $end
$var reg 15 K controls [14:0] $end
$var reg 4 L nextstate [3:0] $end
$var reg 4 M state [3:0] $end
$upscope $end
$upscope $end
$scope module dp $end
$var wire 4 N alucontrol [3:0] $end
$var wire 1 9 alusrca $end
$var wire 2 O alusrcb [1:0] $end
$var wire 1 $ clk $end
$var wire 1 6 iord $end
$var wire 1 5 irwrite $end
$var wire 1 4 memtoreg $end
$var wire 1 2 pcen $end
$var wire 2 P pcsrc [1:0] $end
$var wire 32 Q readdata [31:0] $end
$var wire 1 0 regdst $end
$var wire 1 / regwrite $end
$var wire 1 % reset $end
$var wire 32 R writedata [31:0] $end
$var wire 1 - zero $end
$var wire 5 S writereg [4:0] $end
$var wire 32 T w3 [31:0] $end
$var wire 32 U srcb [31:0] $end
$var wire 32 V srca [31:0] $end
$var wire 32 W slmux [31:0] $end
$var wire 32 X signimmsh [31:0] $end
$var wire 32 Y signimm [31:0] $end
$var wire 32 Z rd2 [31:0] $end
$var wire 32 [ rd1 [31:0] $end
$var wire 32 \ pcnext [31:0] $end
$var wire 32 ] pc [31:0] $end
$var wire 6 ^ op [5:0] $end
$var wire 32 _ instr [31:0] $end
$var wire 6 ` funct [5:0] $end
$var wire 32 a data [31:0] $end
$var wire 32 b b [31:0] $end
$var wire 32 c aluresult [31:0] $end
$var wire 32 d aluout [31:0] $end
$var wire 32 e adr [31:0] $end
$var wire 32 f a [31:0] $end
$scope module alu1 $end
$var wire 4 g aluOp [3:0] $end
$var wire 32 h result_logic [31:0] $end
$var wire 32 i result_arithmetic [31:0] $end
$var wire 32 j B [31:0] $end
$var wire 32 k A [31:0] $end
$var reg 32 l Result [31:0] $end
$var reg 1 - Zero $end
$scope module AritmeticalPart $end
$var wire 4 m aluOp [3:0] $end
$var wire 32 n B [31:0] $end
$var wire 32 o A [31:0] $end
$var reg 32 p Result [31:0] $end
$upscope $end
$scope module LogicalPart $end
$var wire 4 q aluOp [3:0] $end
$var wire 32 r B [31:0] $end
$var wire 32 s A [31:0] $end
$var reg 32 t Result [31:0] $end
$upscope $end
$upscope $end
$scope module flop1 $end
$var wire 1 $ clk $end
$var wire 1 2 en $end
$var wire 1 % reset $end
$var wire 32 u d [31:0] $end
$var reg 32 v q [31:0] $end
$upscope $end
$scope module flop2 $end
$var wire 1 $ clk $end
$var wire 32 w d [31:0] $end
$var wire 1 5 en $end
$var wire 1 % reset $end
$var reg 32 x q [31:0] $end
$upscope $end
$scope module flopr $end
$var wire 1 $ clk $end
$var wire 32 y d [31:0] $end
$var wire 1 % reset $end
$var reg 32 z q [31:0] $end
$upscope $end
$scope module flopra $end
$var wire 1 $ clk $end
$var wire 1 % reset $end
$var wire 32 { d [31:0] $end
$var reg 32 | q [31:0] $end
$upscope $end
$scope module floprb $end
$var wire 1 $ clk $end
$var wire 1 % reset $end
$var wire 32 } d [31:0] $end
$var reg 32 ~ q [31:0] $end
$upscope $end
$scope module floprb2 $end
$var wire 1 $ clk $end
$var wire 32 !" d [31:0] $end
$var wire 1 % reset $end
$var reg 32 "" q [31:0] $end
$upscope $end
$scope module m4 $end
$var wire 32 #" d0 [31:0] $end
$var wire 32 $" d1 [31:0] $end
$var wire 2 %" s [1:0] $end
$var wire 32 &" d3 [31:0] $end
$var wire 32 '" d2 [31:0] $end
$var reg 32 (" y [31:0] $end
$upscope $end
$scope module mentregmux $end
$var wire 32 )" d0 [31:0] $end
$var wire 32 *" d1 [31:0] $end
$var wire 1 4 s $end
$var wire 32 +" y [31:0] $end
$upscope $end
$scope module muxend $end
$var wire 32 ," d0 [31:0] $end
$var wire 32 -" d1 [31:0] $end
$var wire 32 ." d2 [31:0] $end
$var wire 2 /" s [1:0] $end
$var wire 32 0" y [31:0] $end
$upscope $end
$scope module pcbrmux $end
$var wire 32 1" d0 [31:0] $end
$var wire 32 2" d1 [31:0] $end
$var wire 1 6 s $end
$var wire 32 3" y [31:0] $end
$upscope $end
$scope module regdestmux $end
$var wire 5 4" d0 [4:0] $end
$var wire 5 5" d1 [4:0] $end
$var wire 1 0 s $end
$var wire 5 6" y [4:0] $end
$upscope $end
$scope module regdestmux2 $end
$var wire 32 7" d0 [31:0] $end
$var wire 32 8" d1 [31:0] $end
$var wire 1 9 s $end
$var wire 32 9" y [31:0] $end
$upscope $end
$scope module rf $end
$var wire 1 $ clk $end
$var wire 5 :" ra1 [4:0] $end
$var wire 5 ;" ra2 [4:0] $end
$var wire 5 <" wa3 [4:0] $end
$var wire 32 =" wd3 [31:0] $end
$var wire 1 / we3 $end
$var wire 32 >" rd2 [31:0] $end
$var wire 32 ?" rd1 [31:0] $end
$upscope $end
$scope module s1 $end
$var wire 32 @" y [31:0] $end
$var wire 32 A" a [31:0] $end
$upscope $end
$scope module se $end
$var wire 16 B" a [15:0] $end
$var wire 32 C" y [31:0] $end
$upscope $end
$scope module sl22 $end
$var wire 32 D" a [31:0] $end
$var wire 32 E" y [31:0] $end
$upscope $end
$upscope $end
$upscope $end
$upscope $end
$upscope $end
$enddefinitions $end
#0
$dumpvars
b0 E"
b0 D"
b0 C"
b0 B"
b0 A"
b0 @"
b0 ?"
b0 >"
b0 ="
b0 <"
b0 ;"
b0 :"
b0 9"
b0 8"
b0 7"
b0 6"
b0 5"
b0 4"
b0 3"
b0 2"
b0 1"
bx 0"
b0 /"
b0 ."
b0 -"
b100 ,"
b0 +"
b0 *"
b0 )"
b100 ("
b0 '"
b0 &"
b1 %"
b100 $"
b0 #"
b0 ""
b100 !"
b0 ~
b0 }
b0 |
b0 {
b0 z
b100000000000100000000000000101 y
b0 x
b100000000000100000000000000101 w
b0 v
bx u
bx t
b0 s
b100 r
b0 q
b100 p
b0 o
b100 n
b0 m
b100 l
b0 k
b100 j
b100 i
bx h
b0 g
b0 f
b0 e
b0 d
b100 c
b0 b
b0 a
b0 `
b0 _
b0 ^
b0 ]
bx \
b0 [
b0 Z
b0 Y
b0 X
b0 W
b0 V
b100 U
b0 T
b0 S
b0 R
b100000000000100000000000000101 Q
b0 P
b1 O
b0 N
b0 M
b1 L
b101000000010000 K
b0 J
b1 I
b0 H
b0 G
b0 F
b0 E
b0 D
b0 C
b0 B
b1 A
0@
b0 ?
b0 >
b0 =
1<
b0 ;
b0 :
09
b1 8
b0 7
06
15
04
b0 3
12
b0 1
00
0/
b0 .
0-
b100000000000100000000000000101 ,
b0 +
b0 *
b100000000000100000000000000101 )
b0 (
b100000000000100000000000000101 '
b0 &
1%
1$
b0 #
0"
b0 !
$end
#1
b100 \
b100 u
b100 0"
#5
0$
#10
1$
#15
0$
#20
1$
#22
0%
#25
0$
#30
b10100 U
b10100 j
b10100 n
b10100 r
b10100 ("
02
0<
05
b11 8
b11 A
b11 I
b11 O
b11 %"
b110000 K
b1001 L
b10000000000000010100 ."
b11000 c
b11000 l
b11000 !"
b11000 ,"
b10000000000000010100 W
b10000000000000010100 E"
b10100 X
b10100 &"
b10100 @"
bx Z
bx }
bx >"
b10 S
b10 6"
b10 <"
b100000000000110000000000001100 '
b100000000000110000000000001100 )
b100000000000110000000000001100 ,
b100000000000110000000000001100 Q
b100000000000110000000000001100 w
b100000000000110000000000001100 y
b11000 i
b11000 p
b100 T
b100 +"
b100 ="
b100000000000000101 D"
b101 Y
b101 '"
b101 A"
b101 C"
b101 B"
b10 ;"
b10 4"
b101 7
b101 ?
b101 D
b101 `
b1000 3
b1000 >
b1000 H
b1000 ^
b100 #
b100 (
b100 +
b100 ;
b100 e
b100 3"
b100 V
b100 k
b100 o
b100 s
b100 9"
b100 d
b100 ""
b100 )"
b100 -"
b100 2"
b100000000000100000000000000101 a
b100000000000100000000000000101 z
b100000000000100000000000000101 *"
b100000000000100000000000000101 _
b100000000000100000000000000101 x
b100 ]
b100 v
b100 1"
b100 7"
b1 M
1$
#31
b11000 \
b11000 u
b11000 0"
#35
0$
#40
b101 U
b101 j
b101 n
b101 r
b101 ("
b101 c
b101 l
b101 !"
b101 ,"
b101 i
b101 p
b0 V
b0 k
b0 o
b0 s
b0 9"
19
b10 8
b10 A
b10 I
b10 O
b10 %"
b10000100000 K
b1010 L
b11000 T
b11000 +"
b11000 ="
b1001 M
b100000000000110000000000001100 a
b100000000000110000000000001100 z
b100000000000110000000000001100 *"
bx !
bx &
bx *
bx .
bx R
bx b
bx ~
bx #"
b11000 d
b11000 ""
b11000 )"
b11000 -"
b11000 2"
1$
#41
b101 \
b101 u
b101 0"
#45
0$
#50
bx U
bx j
bx n
bx r
bx ("
bx c
bx l
bx !"
bx ,"
bx i
bx p
b100 V
b100 k
b100 o
b100 s
b100 9"
1/
09
b0 8
b0 A
b0 I
b0 O
b0 %"
b100000000000 K
b0 L
b101 T
b101 +"
b101 ="
b101 d
b101 ""
b101 )"
b101 -"
b101 2"
b1010 M
1$
#51
bx \
bx u
bx 0"
#55
0$
#60
b1000 c
b1000 l
b1000 !"
b1000 ,"
b1000 i
b1000 p
b100 U
b100 j
b100 n
b100 r
b100 ("
12
1<
15
0/
b1 8
b1 A
b1 I
b1 O
b1 %"
b101000000010000 K
b1 L
b101 Z
b101 }
b101 >"
bx T
bx +"
bx ="
b0 M
bx d
bx ""
bx )"
bx -"
bx 2"
1$
#61
b1000 \
b1000 u
b1000 0"
#65
0$
#70
b110000 U
b110000 j
b110000 n
b110000 r
b110000 ("
02
0<
05
b11 8
b11 A
b11 I
b11 O
b11 %"
b110000 K
b1001 L
b11000000000000110000 ."
b111000 c
b111000 l
b111000 !"
b111000 ,"
b11000000000000110000 W
b11000000000000110000 E"
b110000 X
b110000 &"
b110000 @"
bx Z
bx }
bx >"
b11 S
b11 6"
b11 <"
b100000011001111111111111110111 '
b100000011001111111111111110111 )
b100000011001111111111111110111 ,
b100000011001111111111111110111 Q
b100000011001111111111111110111 w
b100000011001111111111111110111 y
b111000 i
b111000 p
b1000 T
b1000 +"
b1000 ="
b110000000000001100 D"
b1100 Y
b1100 '"
b1100 A"
b1100 C"
b1100 B"
b11 ;"
b11 4"
b1100 7
b1100 ?
b1100 D
b1100 `
b1000 #
b1000 (
b1000 +
b1000 ;
b1000 e
b1000 3"
b1000 V
b1000 k
b1000 o
b1000 s
b1000 9"
b1000 d
b1000 ""
b1000 )"
b1000 -"
b1000 2"
b101 !
b101 &
b101 *
b101 .
b101 R
b101 b
b101 ~
b101 #"
b100000000000110000000000001100 _
b100000000000110000000000001100 x
b1000 ]
b1000 v
b1000 1"
b1000 7"
b1 M
1$
#71
b111000 \
b111000 u
b111000 0"
#75
0$
#80
b1100 U
b1100 j
b1100 n
b1100 r
b1100 ("
b1100 c
b1100 l
b1100 !"
b1100 ,"
b1100 i
b1100 p
b0 V
b0 k
b0 o
b0 s
b0 9"
19
b10 8
b10 A
b10 I
b10 O
b10 %"
b10000100000 K
b1010 L
b111000 T
b111000 +"
b111000 ="
b1001 M
b100000011001111111111111110111 a
b100000011001111111111111110111 z
b100000011001111111111111110111 *"
bx !
bx &
bx *
bx .
bx R
bx b
bx ~
bx #"
b111000 d
b111000 ""
b111000 )"
b111000 -"
b111000 2"
1$
#81
b1100 \
b1100 u
b1100 0"
#85
0$
#90
bx U
bx j
bx n
bx r
bx ("
bx c
bx l
bx !"
bx ,"
bx i
bx p
b1000 V
b1000 k
b1000 o
b1000 s
b1000 9"
1/
09
b0 8
b0 A
b0 I
b0 O
b0 %"
b100000000000 K
b0 L
b1100 T
b1100 +"
b1100 ="
b1100 d
b1100 ""
b1100 )"
b1100 -"
b1100 2"
b1010 M
1$
#91
bx \
bx u
bx 0"
#95
0$
#100
b1100 c
b1100 l
b1100 !"
b1100 ,"
b1100 i
b1100 p
b100 U
b100 j
b100 n
b100 r
b100 ("
12
1<
15
0/
b1 8
b1 A
b1 I
b1 O
b1 %"
b101000000010000 K
b1 L
b1100 Z
b1100 }
b1100 >"
bx T
bx +"
bx ="
b0 M
bx d
bx ""
bx )"
bx -"
bx 2"
1$
#101
b1100 \
b1100 u
b1100 0"
#105
0$
#110
b11111111111111111111111111011100 U
b11111111111111111111111111011100 j
b11111111111111111111111111011100 n
b11111111111111111111111111011100 r
b11111111111111111111111111011100 ("
02
0<
05
b11 8
b11 A
b11 I
b11 O
b11 %"
b110000 K
b1001 L
b1100111111111111111011100 ."
b11111111111111111111111111101000 c
b11111111111111111111111111101000 l
b11111111111111111111111111101000 !"
b11111111111111111111111111101000 ,"
b1100111111111111111011100 W
b1100111111111111111011100 E"
b11111111111111111111111111011100 X
b11111111111111111111111111011100 &"
b11111111111111111111111111011100 @"
bx Z
bx }
bx >"
b1100 [
b1100 {
b1100 ?"
b111 S
b111 6"
b111 <"
b111000100010000000100101 '
b111000100010000000100101 )
b111000100010000000100101 ,
b111000100010000000100101 Q
b111000100010000000100101 w
b111000100010000000100101 y
b11111111111111111111111111101000 i
b11111111111111111111111111101000 p
b1100 T
b1100 +"
b1100 ="
b11001111111111111110111 D"
b11111111111111111111111111110111 Y
b11111111111111111111111111110111 '"
b11111111111111111111111111110111 A"
b11111111111111111111111111110111 C"
b1111111111110111 B"
b111 ;"
b11 :"
b11111 5"
b111 4"
b110111 7
b110111 ?
b110111 D
b110111 `
b1100 #
b1100 (
b1100 +
b1100 ;
b1100 e
b1100 3"
b1100 V
b1100 k
b1100 o
b1100 s
b1100 9"
b1100 d
b1100 ""
b1100 )"
b1100 -"
b1100 2"
b1100 !
b1100 &
b1100 *
b1100 .
b1100 R
b1100 b
b1100 ~
b1100 #"
b100000011001111111111111110111 _
b100000011001111111111111110111 x
b1100 ]
b1100 v
b1100 1"
b1100 7"
b1 M
1$
#111
b11111111111111111111111111101000 \
b11111111111111111111111111101000 u
b11111111111111111111111111101000 0"
#115
0$
#120
b11 c
b11 l
b11 !"
b11 ,"
b11 i
b11 p
b11111111111111111111111111110111 U
b11111111111111111111111111110111 j
b11111111111111111111111111110111 n
b11111111111111111111111111110111 r
b11111111111111111111111111110111 ("
19
b10 8
b10 A
b10 I
b10 O
b10 %"
b10000100000 K
b1010 L
b11111111111111111111111111101000 T
b11111111111111111111111111101000 +"
b11111111111111111111111111101000 ="
b1001 M
b111000100010000000100101 a
b111000100010000000100101 z
b111000100010000000100101 *"
b1100 f
b1100 |
b1100 8"
bx !
bx &
bx *
bx .
bx R
bx b
bx ~
bx #"
b11111111111111111111111111101000 d
b11111111111111111111111111101000 ""
b11111111111111111111111111101000 )"
b11111111111111111111111111101000 -"
b11111111111111111111111111101000 2"
1$
#121
b11 \
b11 u
b11 0"
#125
0$
#130
bx c
bx l
bx !"
bx ,"
bx i
bx p
bx U
bx j
bx n
bx r
bx ("
1/
09
b0 8
b0 A
b0 I
b0 O
b0 %"
b100000000000 K
b0 L
b11 T
b11 +"
b11 ="
b11 d
b11 ""
b11 )"
b11 -"
b11 2"
b1010 M
1$
#131
bx \
bx u
bx 0"
#135
0$
#140
b10000 c
b10000 l
b10000 !"
b10000 ,"
b10000 i
b10000 p
b100 U
b100 j
b100 n
b100 r
b100 ("
12
1<
15
0/
b1 8
b1 A
b1 I
b1 O
b1 %"
b101000000010000 K
b1 L
b11 Z
b11 }
b11 >"
bx T
bx +"
bx ="
b0 M
bx d
bx ""
bx )"
bx -"
bx 2"
1$
#141
b10000 \
b10000 u
b10000 0"
#145
0$
#150
b1000000010010100 U
b1000000010010100 j
b1000000010010100 n
b1000000010010100 r
b1000000010010100 ("
02
0<
05
b11 8
b11 A
b11 I
b11 O
b11 %"
b110000 K
b110 L
b11100010001000000010010100 ."
b1000000010100100 c
b1000000010100100 l
b1000000010100100 !"
b1000000010100100 ,"
b11100010001000000010010100 W
b11100010001000000010010100 E"
b1000000010010100 X
b1000000010010100 &"
b1000000010010100 @"
b101 Z
b101 }
b101 >"
b11 [
b11 {
b11 ?"
b10 S
b10 6"
b10 <"
b11001000010100000100100 '
b11001000010100000100100 )
b11001000010100000100100 ,
b11001000010100000100100 Q
b11001000010100000100100 w
b11001000010100000100100 y
b1000000010100100 i
b1000000010100100 p
b10000 T
b10000 +"
b10000 ="
b111000100010000000100101 D"
b10000000100101 Y
b10000000100101 '"
b10000000100101 A"
b10000000100101 C"
b10000000100101 B"
b10 ;"
b111 :"
b100 5"
b10 4"
b100101 7
b100101 ?
b100101 D
b100101 `
b0 3
b0 >
b0 H
b0 ^
b10000 #
b10000 (
b10000 +
b10000 ;
b10000 e
b10000 3"
b10000 V
b10000 k
b10000 o
b10000 s
b10000 9"
b10000 d
b10000 ""
b10000 )"
b10000 -"
b10000 2"
b11 !
b11 &
b11 *
b11 .
b11 R
b11 b
b11 ~
b11 #"
b111000100010000000100101 _
b111000100010000000100101 x
b10000 ]
b10000 v
b10000 1"
b10000 7"
b1 M
1$
#151
b1000000010100100 \
b1000000010100100 u
b1000000010100100 0"
#155
0$
#160
b111 h
b111 t
b101 U
b101 j
b101 n
b101 r
b101 ("
b101 :
b101 C
b101 F
b101 N
b101 g
b101 m
b101 q
b111 c
b111 l
b111 !"
b111 ,"
b1000 i
b1000 p
b11 V
b11 k
b11 o
b11 s
b11 9"
19
b0 8
b0 A
b0 I
b0 O
b0 %"
b10 B
b10 E
b10 J
b10000000010 K
b111 L
b1000000010100100 T
b1000000010100100 +"
b1000000010100100 ="
b110 M
b11001000010100000100100 a
b11001000010100000100100 z
b11001000010100000100100 *"
b11 f
b11 |
b11 8"
b101 !
b101 &
b101 *
b101 .
b101 R
b101 b
b101 ~
b101 #"
b1000000010100100 d
b1000000010100100 ""
b1000000010100100 )"
b1000000010100100 -"
b1000000010100100 2"
1$
#161
b111 \
b111 u
b111 0"
#165
0$
#170
b0 :
b0 C
b0 F
b0 N
b0 g
b0 m
b0 q
b10101 c
b10101 l
b10101 !"
b10101 ,"
b10101 i
b10101 p
b10101 h
b10101 t
b10000 V
b10000 k
b10000 o
b10000 s
b10000 9"
b100 S
b100 6"
b100 <"
1/
09
10
b0 B
b0 E
b0 J
b100001000000 K
b0 L
b111 T
b111 +"
b111 ="
b111 d
b111 ""
b111 )"
b111 -"
b111 2"
b111 M
1$
#171
b10101 \
b10101 u
b10101 0"
#175
0$
#180
b10100 c
b10100 l
b10100 !"
b10100 ,"
b10100 i
b10100 p
b100 U
b100 j
b100 n
b100 r
b100 ("
12
b10 S
b10 6"
b10 <"
1<
15
0/
00
b1 8
b1 A
b1 I
b1 O
b1 %"
b101000000010000 K
b1 L
b10101 T
b10101 +"
b10101 ="
b0 M
b10101 d
b10101 ""
b10101 )"
b10101 -"
b10101 2"
1$
#181
b10100 \
b10100 u
b10100 0"
#185
0$
#190
b1010000010010000 U
b1010000010010000 j
b1010000010010000 n
b1010000010010000 r
b1010000010010000 ("
02
0<
05
b11 8
b11 A
b11 I
b11 O
b11 %"
b110000 K
b110 L
b1100100001010000010010000 ."
b1010000010100100 c
b1010000010100100 l
b1010000010100100 !"
b1010000010100100 ,"
b1100100001010000010010000 W
b1100100001010000010010000 E"
b1010000010010000 X
b1010000010010000 &"
b1010000010010000 @"
b111 Z
b111 }
b111 >"
b1100 [
b1100 {
b1100 ?"
b100 S
b100 6"
b100 <"
b101001000010100000100000 '
b101001000010100000100000 )
b101001000010100000100000 ,
b101001000010100000100000 Q
b101001000010100000100000 w
b101001000010100000100000 y
b1010000010100100 i
b1010000010100100 p
b10100 T
b10100 +"
b10100 ="
b11001000010100000100100 D"
b10100000100100 Y
b10100000100100 '"
b10100000100100 A"
b10100000100100 C"
b10100000100100 B"
b100 ;"
b11 :"
b101 5"
b100 4"
b100100 7
b100100 ?
b100100 D
b100100 `
b10100 #
b10100 (
b10100 +
b10100 ;
b10100 e
b10100 3"
b10100 V
b10100 k
b10100 o
b10100 s
b10100 9"
b10100 d
b10100 ""
b10100 )"
b10100 -"
b10100 2"
b11001000010100000100100 _
b11001000010100000100100 x
b10100 ]
b10100 v
b10100 1"
b10100 7"
b1 M
1$
#191
b1010000010100100 \
b1010000010100100 u
b1010000010100100 0"
#195
0$
#200
b100 h
b100 t
b111 U
b111 j
b111 n
b111 r
b111 ("
b100 :
b100 C
b100 F
b100 N
b100 g
b100 m
b100 q
b100 c
b100 l
b100 !"
b100 ,"
b10011 i
b10011 p
b1100 V
b1100 k
b1100 o
b1100 s
b1100 9"
19
b0 8
b0 A
b0 I
b0 O
b0 %"
b10 B
b10 E
b10 J
b10000000010 K
b111 L
b1010000010100100 T
b1010000010100100 +"
b1010000010100100 ="
b110 M
b101001000010100000100000 a
b101001000010100000100000 z
b101001000010100000100000 *"
b1100 f
b1100 |
b1100 8"
b111 !
b111 &
b111 *
b111 .
b111 R
b111 b
b111 ~
b111 #"
b1010000010100100 d
b1010000010100100 ""
b1010000010100100 )"
b1010000010100100 -"
b1010000010100100 2"
1$
#201
b100 \
b100 u
b100 0"
#205
0$
#210
b11011 c
b11011 l
b11011 !"
b11011 ,"
b0 :
b0 C
b0 F
b0 N
b0 g
b0 m
b0 q
b11011 i
b11011 p
b10100 V
b10100 k
b10100 o
b10100 s
b10100 9"
b101 S
b101 6"
b101 <"
1/
09
10
b0 B
b0 E
b0 J
b100001000000 K
b0 L
b100 T
b100 +"
b100 ="
b100 d
b100 ""
b100 )"
b100 -"
b100 2"
b111 M
1$
#211
b11011 \
b11011 u
b11011 0"
#215
0$
#220
b11000 c
b11000 l
b11000 !"
b11000 ,"
b11000 i
b11000 p
b100 U
b100 j
b100 n
b100 r
b100 ("
12
b100 S
b100 6"
b100 <"
1<
15
0/
00
b1 8
b1 A
b1 I
b1 O
b1 %"
b101000000010000 K
b1 L
b11011 T
b11011 +"
b11011 ="
b0 M
b11011 d
b11011 ""
b11011 )"
b11011 -"
b11011 2"
1$
#221
b11000 \
b11000 u
b11000 0"
#225
0$
#230
b1010000010000000 U
b1010000010000000 j
b1010000010000000 n
b1010000010000000 r
b1010000010000000 ("
02
0<
05
b11 8
b11 A
b11 I
b11 O
b11 %"
b110000 K
b110 L
b10100100001010000010000000 ."
b1010000010011000 c
b1010000010011000 l
b1010000010011000 !"
b1010000010011000 ,"
b10100100001010000010000000 W
b10100100001010000010000000 E"
b1010000010000000 X
b1010000010000000 &"
b1010000010000000 @"
b100 [
b100 {
b100 ?"
b10000101001110000000000001010 '
b10000101001110000000000001010 )
b10000101001110000000000001010 ,
b10000101001110000000000001010 Q
b10000101001110000000000001010 w
b10000101001110000000000001010 y
b1010000010011000 i
b1010000010011000 p
b11000 T
b11000 +"
b11000 ="
b101001000010100000100000 D"
b10100000100000 Y
b10100000100000 '"
b10100000100000 A"
b10100000100000 C"
b10100000100000 B"
b101 :"
b100000 7
b100000 ?
b100000 D
b100000 `
b11000 #
b11000 (
b11000 +
b11000 ;
b11000 e
b11000 3"
b11000 V
b11000 k
b11000 o
b11000 s
b11000 9"
b11000 d
b11000 ""
b11000 )"
b11000 -"
b11000 2"
b101001000010100000100000 _
b101001000010100000100000 x
b11000 ]
b11000 v
b11000 1"
b11000 7"
b1 M
1$
#231
b1010000010011000 \
b1010000010011000 u
b1010000010011000 0"
#235
0$
#240
b111 U
b111 j
b111 n
b111 r
b111 ("
b1011 c
b1011 l
b1011 !"
b1011 ,"
b1011 i
b1011 p
b100 V
b100 k
b100 o
b100 s
b100 9"
19
b0 8
b0 A
b0 I
b0 O
b0 %"
b10 B
b10 E
b10 J
b10000000010 K
b111 L
b1010000010011000 T
b1010000010011000 +"
b1010000010011000 ="
b110 M
b10000101001110000000000001010 a
b10000101001110000000000001010 z
b10000101001110000000000001010 *"
b100 f
b100 |
b100 8"
b1010000010011000 d
b1010000010011000 ""
b1010000010011000 )"
b1010000010011000 -"
b1010000010011000 2"
1$
#241
b1011 \
b1011 u
b1011 0"
#245
0$
#250
b11111 c
b11111 l
b11111 !"
b11111 ,"
b11111 i
b11111 p
b11000 V
b11000 k
b11000 o
b11000 s
b11000 9"
b101 S
b101 6"
b101 <"
1/
09
10
b0 B
b0 E
b0 J
b100001000000 K
b0 L
b1011 T
b1011 +"
b1011 ="
b1011 d
b1011 ""
b1011 )"
b1011 -"
b1011 2"
b111 M
1$
#251
b11111 \
b11111 u
b11111 0"
#255
0$
#260
b11100 c
b11100 l
b11100 !"
b11100 ,"
b11100 i
b11100 p
b100 U
b100 j
b100 n
b100 r
b100 ("
12
b100 S
b100 6"
b100 <"
1<
15
0/
00
b1 8
b1 A
b1 I
b1 O
b1 %"
b101000000010000 K
b1 L
b1011 [
b1011 {
b1011 ?"
b11111 T
b11111 +"
b11111 ="
b0 M
b11111 d
b11111 ""
b11111 )"
b11111 -"
b11111 2"
1$
#261
b11100 \
b11100 u
b11100 0"
#265
0$
#270
b101000 U
b101000 j
b101000 n
b101000 r
b101000 ("
02
0<
05
b11 8
b11 A
b11 I
b11 O
b11 %"
b110000 K
b1000 L
b10100111000000000000101000 ."
b1000100 c
b1000100 l
b1000100 !"
b1000100 ,"
b10100111000000000000101000 W
b10100111000000000000101000 E"
b101000 X
b101000 &"
b101000 @"
b11 Z
b11 }
b11 >"
b111 S
b111 6"
b111 <"
b11001000010000000101010 '
b11001000010000000101010 )
b11001000010000000101010 ,
b11001000010000000101010 Q
b11001000010000000101010 w
b11001000010000000101010 y
b1000100 i
b1000100 p
b11100 T
b11100 +"
b11100 ="
b101001110000000000001010 D"
b1010 Y
b1010 '"
b1010 A"
b1010 C"
b1010 B"
b111 ;"
b0 5"
b111 4"
b1010 7
b1010 ?
b1010 D
b1010 `
b100 3
b100 >
b100 H
b100 ^
b11100 #
b11100 (
b11100 +
b11100 ;
b11100 e
b11100 3"
b11100 V
b11100 k
b11100 o
b11100 s
b11100 9"
b11100 d
b11100 ""
b11100 )"
b11100 -"
b11100 2"
b1011 f
b1011 |
b1011 8"
b10000101001110000000000001010 _
b10000101001110000000000001010 x
b11100 ]
b11100 v
b11100 1"
b11100 7"
b1 M
1$
#271
b1000100 \
b1000100 u
b1000100 0"
#275
0$
#280
b11 U
b11 j
b11 n
b11 r
b11 ("
b1110 c
b1110 l
b1110 !"
b1110 ,"
b1110 i
b1110 p
b1011 V
b1011 k
b1011 o
b1011 s
b1011 9"
19
1@
b0 8
b0 A
b0 I
b0 O
b0 %"
b1 1
b1 =
b1 G
b1 P
b1 /"
b11000000100 K
b0 L
b1000100 T
b1000100 +"
b1000100 ="
b1000 M
b11001000010000000101010 a
b11001000010000000101010 z
b11001000010000000101010 *"
b11 !
b11 &
b11 *
b11 .
b11 R
b11 b
b11 ~
b11 #"
b1000100 d
b1000100 ""
b1000100 )"
b1000100 -"
b1000100 2"
1$
#285
0$
#290
b100 U
b100 j
b100 n
b100 r
b100 ("
b100000 c
b100000 l
b100000 !"
b100000 ,"
b100000 i
b100000 p
12
b11100 V
b11100 k
b11100 o
b11100 s
b11100 9"
1<
15
09
0@
b1 8
b1 A
b1 I
b1 O
b1 %"
b0 1
b0 =
b0 G
b0 P
b0 /"
b101000000010000 K
b1 L
b1110 T
b1110 +"
b1110 ="
b1110 d
b1110 ""
b1110 )"
b1110 -"
b1110 2"
b0 M
1$
#291
b100000 \
b100000 u
b100000 0"
#295
0$
