Single Cycle/datapath.vcd
$date
	Fri Jul 10 16:15:57 2020
$end
$version
	Icarus Verilog
$end
$timescale
	1s
$end
$scope module flopenr $end
$var wire 1 ! clk $end
$var wire 8 " d [7:0] $end
$var wire 1 # en $end
$var wire 1 $ reset $end
$var reg 8 % q [7:0] $end
$upscope $end
$scope module testbench $end
$var wire 32 & writedata [31:0] $end
$var wire 1 ' memwrite $end
$var wire 32 ( dataadr [31:0] $end
$var reg 1 ) clk $end
$var reg 1 * reset $end
$scope module dut $end
$var wire 1 ) clk $end
$var wire 1 * reset $end
$var wire 32 + writedata [31:0] $end
$var wire 32 , readdata [31:0] $end
$var wire 32 - pc [31:0] $end
$var wire 1 ' memwrite $end
$var wire 32 . instr [31:0] $end
$var wire 32 / dataadr [31:0] $end
$scope module dmem $end
$var wire 1 ) clk $end
$var wire 32 0 rd [31:0] $end
$var wire 1 ' we $end
$var wire 32 1 wd [31:0] $end
$var wire 32 2 a [31:0] $end
$upscope $end
$scope module imem $end
$var wire 6 3 a [5:0] $end
$var wire 32 4 rd [31:0] $end
$upscope $end
$scope module mips $end
$var wire 1 ) clk $end
$var wire 32 5 instr [31:0] $end
$var wire 32 6 readdata [31:0] $end
$var wire 1 * reset $end
$var wire 1 7 zero $end
$var wire 32 8 writedata [31:0] $end
$var wire 1 9 regwrite $end
$var wire 1 : regdst $end
$var wire 1 ; pcsrc $end
$var wire 32 < pc [31:0] $end
$var wire 1 ' memwrite $end
$var wire 1 = memtoreg $end
$var wire 1 > jump $end
$var wire 1 ? alusrc $end
$var wire 32 @ aluout [31:0] $end
$var wire 4 A alucontrol [3:0] $end
$scope module c $end
$var wire 6 B funct [5:0] $end
$var wire 6 C op [5:0] $end
$var wire 1 ; pcsrc $end
$var wire 1 7 zero $end
$var wire 1 9 regwrite $end
$var wire 1 : regdst $end
$var wire 1 ' memwrite $end
$var wire 1 = memtoreg $end
$var wire 1 > jump $end
$var wire 1 D branch $end
$var wire 1 ? alusrc $end
$var wire 2 E aluop [1:0] $end
$var wire 4 F alucontrol [3:0] $end
$scope module ad $end
$var wire 6 G funct [5:0] $end
$var wire 2 H aluop [1:0] $end
$var reg 4 I alucontrol [3:0] $end
$upscope $end
$scope module md $end
$var wire 6 J op [5:0] $end
$var wire 1 9 regwrite $end
$var wire 1 : regdst $end
$var wire 1 ' memwrite $end
$var wire 1 = memtoreg $end
$var wire 1 > jump $end
$var wire 1 D branch $end
$var wire 1 ? alusrc $end
$var wire 2 K aluop [1:0] $end
$var reg 9 L controls [8:0] $end
$upscope $end
$upscope $end
$scope module dp $end
$var wire 4 M alucontrol [3:0] $end
$var wire 1 ? alusrc $end
$var wire 1 ) clk $end
$var wire 32 N instr [31:0] $end
$var wire 1 > jump $end
$var wire 1 = memtoreg $end
$var wire 1 ; pcsrc $end
$var wire 32 O readdata [31:0] $end
$var wire 1 : regdst $end
$var wire 1 9 regwrite $end
$var wire 1 * reset $end
$var wire 1 7 zero $end
$var wire 5 P writereg [4:0] $end
$var wire 32 Q writedata [31:0] $end
$var wire 32 R srcb [31:0] $end
$var wire 32 S srca [31:0] $end
$var wire 32 T signimmsh [31:0] $end
$var wire 32 U signimm [31:0] $end
$var wire 32 V result [31:0] $end
$var wire 32 W pcplus4 [31:0] $end
$var wire 32 X pcnextbr [31:0] $end
$var wire 32 Y pcnext [31:0] $end
$var wire 32 Z pcbranch [31:0] $end
$var wire 32 [ pc [31:0] $end
$var wire 32 \ aluout [31:0] $end
$scope module alu $end
$var wire 4 ] aluOp [3:0] $end
$var wire 32 ^ result_logic [31:0] $end
$var wire 32 _ result_arithmetic [31:0] $end
$var wire 32 ` B [31:0] $end
$var wire 32 a A [31:0] $end
$var reg 32 b Result [31:0] $end
$var reg 1 7 Zero $end
$scope module AritmeticalPart $end
$var wire 4 c aluOp [3:0] $end
$var wire 32 d B [31:0] $end
$var wire 32 e A [31:0] $end
$var reg 32 f Result [31:0] $end
$upscope $end
$scope module LogicalPart $end
$var wire 4 g aluOp [3:0] $end
$var wire 32 h B [31:0] $end
$var wire 32 i A [31:0] $end
$var reg 32 j Result [31:0] $end
$upscope $end
$upscope $end
$scope module immsh $end
$var wire 32 k y [31:0] $end
$var wire 32 l a [31:0] $end
$upscope $end
$scope module pcadd1 $end
$var wire 32 m b [31:0] $end
$var wire 32 n y [31:0] $end
$var wire 32 o a [31:0] $end
$upscope $end
$scope module pcadd2 $end
$var wire 32 p a [31:0] $end
$var wire 32 q b [31:0] $end
$var wire 32 r y [31:0] $end
$upscope $end
$scope module pcbrmux $end
$var wire 32 s d0 [31:0] $end
$var wire 32 t d1 [31:0] $end
$var wire 1 ; s $end
$var wire 32 u y [31:0] $end
$upscope $end
$scope module pcmux $end
$var wire 32 v d0 [31:0] $end
$var wire 32 w d1 [31:0] $end
$var wire 1 > s $end
$var wire 32 x y [31:0] $end
$upscope $end
$scope module pcreg $end
$var wire 1 ) clk $end
$var wire 32 y d [31:0] $end
$var wire 1 * reset $end
$var reg 32 z q [31:0] $end
$upscope $end
$scope module resmux $end
$var wire 32 { d0 [31:0] $end
$var wire 32 | d1 [31:0] $end
$var wire 1 = s $end
$var wire 32 } y [31:0] $end
$upscope $end
$scope module rf $end
$var wire 1 ) clk $end
$var wire 5 ~ ra1 [4:0] $end
$var wire 5 !" ra2 [4:0] $end
$var wire 32 "" wd3 [31:0] $end
$var wire 1 9 we3 $end
$var wire 5 #" wa3 [4:0] $end
$var wire 32 $" rd2 [31:0] $end
$var wire 32 %" rd1 [31:0] $end
$upscope $end
$scope module se $end
$var wire 16 &" a [15:0] $end
$var wire 1 ? alusrc $end
$var wire 4 '" instr [3:0] $end
$var reg 32 (" y [31:0] $end
$upscope $end
$scope module srcbmux $end
$var wire 32 )" d0 [31:0] $end
$var wire 32 *" d1 [31:0] $end
$var wire 1 ? s $end
$var wire 32 +" y [31:0] $end
$upscope $end
$scope module wrmux $end
$var wire 5 ," d0 [4:0] $end
$var wire 5 -" d1 [4:0] $end
$var wire 1 : s $end
$var wire 5 ." y [4:0] $end
$upscope $end
$upscope $end
$upscope $end
$upscope $end
$upscope $end
$enddefinitions $end
#0
$dumpvars
b10 ."
b0 -"
b10 ,"
b101 +"
b101 *"
bx )"
b101 ("
b0 '"
b101 &"
b0 %"
bx $"
b10 #"
b101 ""
b10 !"
b0 ~
b101 }
bx |
b101 {
b0 z
b100 y
b100 x
b10000000000000010100 w
b100 v
b100 u
b11000 t
b100 s
b11000 r
b10100 q
b100 p
b0 o
b100 n
b100 m
b101 l
b10100 k
bx j
b0 i
b101 h
b0 g
b101 f
b0 e
b101 d
b0 c
b101 b
b0 a
b101 `
b101 _
bx ^
b0 ]
b101 \
b0 [
b11000 Z
b100 Y
b100 X
b100 W
b101 V
b101 U
b10100 T
b0 S
b101 R
bx Q
b10 P
bx O
b100000000000100000000000000101 N
b0 M
b101000000 L
b0 K
b1000 J
b0 I
b0 H
b101 G
b0 F
b0 E
0D
b1000 C
b101 B
b0 A
b101 @
1?
0>
0=
b0 <
0;
0:
19
bx 8
07
bx 6
b100000000000100000000000000101 5
b100000000000100000000000000101 4
b0 3
b101 2
bx 1
bx 0
b101 /
b100000000000100000000000000101 .
b0 -
bx ,
bx +
1*
1)
b101 (
0'
bx &
bx %
z$
z#
bz "
z!
$end
#5
0)
#10
b101 &
b101 +
b101 1
b101 8
b101 Q
b101 $"
b101 )"
1)
#15
0)
#20
1)
#22
0*
#25
0)
#30
b1100 V
b1100 }
b1100 ""
b1100 (
b1100 /
b1100 2
b1100 @
b1100 \
b1100 b
b1100 {
b1100 _
b1100 f
b1100 R
b1100 `
b1100 d
b1100 h
b1100 +"
b110000 T
b110000 k
b110000 q
bx &
bx +
bx 1
bx 8
bx Q
bx $"
bx )"
b11 P
b11 #"
b11 ."
b1100 U
b1100 l
b1100 ("
b1100 *"
b1000 Y
b1000 x
b1000 y
b1100 B
b1100 G
b11000000000000110000 w
b11 !"
b11 ,"
b1100 &"
b1000 X
b1000 u
b1000 v
b100000000000110000000000001100 .
b100000000000110000000000001100 4
b100000000000110000000000001100 5
b100000000000110000000000001100 N
b1 3
b111000 Z
b111000 r
b111000 t
b1000 W
b1000 n
b1000 p
b1000 s
b100 -
b100 <
b100 [
b100 o
b100 z
1)
#35
0)
#40
b11 V
b11 }
b11 ""
b11 (
b11 /
b11 2
b11 @
b11 \
b11 b
b11 {
b11 _
b11 f
b11111111111111111111111111110111 R
b11111111111111111111111111110111 `
b11111111111111111111111111110111 d
b11111111111111111111111111110111 h
b11111111111111111111111111110111 +"
b11111111111111111111111111011100 T
b11111111111111111111111111011100 k
b11111111111111111111111111011100 q
b1100 S
b1100 a
b1100 e
b1100 i
b1100 %"
b111 P
b111 #"
b111 ."
b11111111111111111111111111110111 U
b11111111111111111111111111110111 l
b11111111111111111111111111110111 ("
b11111111111111111111111111110111 *"
b1100 Y
b1100 x
b1100 y
b110111 B
b110111 G
b1100111111111111111011100 w
b11 ~
b111 !"
b111 ,"
b11111 -"
b1111111111110111 &"
bx &
bx +
bx 1
bx 8
bx Q
bx $"
bx )"
b1100 X
b1100 u
b1100 v
b100000011001111111111111110111 .
b100000011001111111111111110111 4
b100000011001111111111111110111 5
b100000011001111111111111110111 N
b10 3
b11111111111111111111111111101000 Z
b11111111111111111111111111101000 r
b11111111111111111111111111101000 t
b1100 W
b1100 n
b1100 p
b1100 s
b1000 -
b1000 <
b1000 [
b1000 o
b1000 z
1)
#45
0)
#50
b111 ^
b111 j
b101 A
b101 F
b101 I
b101 M
b101 ]
b101 c
b101 g
b101 '"
1:
0?
b10 E
b10 H
b10 K
b110000010 L
b111 V
b111 }
b111 ""
b111 (
b111 /
b111 2
b111 @
b111 \
b111 b
b111 {
b1000 _
b1000 f
b101 R
b101 `
b101 d
b101 h
b101 +"
b1000000010010100 T
b1000000010010100 k
b1000000010010100 q
b11 S
b11 a
b11 e
b11 i
b11 %"
b100 P
b100 #"
b100 ."
b10000000100101 U
b10000000100101 l
b10000000100101 ("
b10000000100101 *"
b10000 Y
b10000 x
b10000 y
b0 C
b0 J
b100101 B
b100101 G
b11100010001000000010010100 w
b111 ~
b10 !"
b10 ,"
b100 -"
b10000000100101 &"
b101 &
b101 +
b101 1
b101 8
b101 Q
b101 $"
b101 )"
b10000 X
b10000 u
b10000 v
b111000100010000000100101 .
b111000100010000000100101 4
b111000100010000000100101 5
b111000100010000000100101 N
b11 3
b1000000010100100 Z
b1000000010100100 r
b1000000010100100 t
b10000 W
b10000 n
b10000 p
b10000 s
b1100 -
b1100 <
b1100 [
b1100 o
b1100 z
1)
#55
0)
#60
b100 A
b100 F
b100 I
b100 M
b100 ]
b100 c
b100 g
b100 '"
b100 V
b100 }
b100 ""
b100 (
b100 /
b100 2
b100 @
b100 \
b100 b
b100 {
b100 ^
b100 j
b10011 _
b10011 f
b111 R
b111 `
b111 d
b111 h
b111 +"
b1010000010010000 T
b1010000010010000 k
b1010000010010000 q
b1100 S
b1100 a
b1100 e
b1100 i
b1100 %"
b111 &
b111 +
b111 1
b111 8
b111 Q
b111 $"
b111 )"
b101 P
b101 #"
b101 ."
b10100000100100 U
b10100000100100 l
b10100000100100 ("
b10100000100100 *"
b10100 Y
b10100 x
b10100 y
b100100 B
b100100 G
b1100100001010000010010000 w
b11 ~
b100 !"
b100 ,"
b101 -"
b10100000100100 &"
b10100 X
b10100 u
b10100 v
b11001000010100000100100 .
b11001000010100000100100 4
b11001000010100000100100 5
b11001000010100000100100 N
b100 3
b1010000010100100 Z
b1010000010100100 r
b1010000010100100 t
b10100 W
b10100 n
b10100 p
b10100 s
b10000 -
b10000 <
b10000 [
b10000 o
b10000 z
1)
#65
0)
#70
b1011 V
b1011 }
b1011 ""
b1011 (
b1011 /
b1011 2
b1011 @
b1011 \
b1011 b
b1011 {
b0 A
b0 F
b0 I
b0 M
b0 ]
b0 c
b0 g
b0 '"
b1011 _
b1011 f
b1010000010000000 T
b1010000010000000 k
b1010000010000000 q
b100 S
b100 a
b100 e
b100 i
b100 %"
b10100000100000 U
b10100000100000 l
b10100000100000 ("
b10100000100000 *"
b11000 Y
b11000 x
b11000 y
b100000 B
b100000 G
b10100100001010000010000000 w
b101 ~
b10100000100000 &"
b11000 X
b11000 u
b11000 v
b101001000010100000100000 .
b101001000010100000100000 4
b101001000010100000100000 5
b101001000010100000100000 N
b101 3
b1010000010011000 Z
b1010000010011000 r
b1010000010011000 t
b11000 W
b11000 n
b11000 p
b11000 s
b10100 -
b10100 <
b10100 [
b10100 o
b10100 z
1)
#75
0)
#80
09
0:
1D
b1 E
b1 H
b1 K
b100001 L
b10 A
b10 F
b10 I
b10 M
b10 ]
b10 c
b10 g
b10 '"
b1000 V
b1000 }
b1000 ""
b11 R
b11 `
b11 d
b11 h
b11 +"
b101000 T
b101000 k
b101000 q
b1000 (
b1000 /
b1000 2
b1000 @
b1000 \
b1000 b
b1000 {
b11 &
b11 +
b11 1
b11 8
b11 Q
b11 $"
b11 )"
b111 P
b111 #"
b111 ."
b1010 U
b1010 l
b1010 ("
b1010 *"
b1000 _
b1000 f
b11100 Y
b11100 x
b11100 y
b100 C
b100 J
b1010 B
b1010 G
b10100111000000000000101000 w
b111 !"
b111 ,"
b0 -"
b1010 &"
b1011 S
b1011 a
b1011 e
b1011 i
b1011 %"
b11100 X
b11100 u
b11100 v
b10000101001110000000000001010 .
b10000101001110000000000001010 4
b10000101001110000000000001010 5
b10000101001110000000000001010 N
b110 3
b1000100 Z
b1000100 r
b1000100 t
b11100 W
b11100 n
b11100 p
b11100 s
b11000 -
b11000 <
b11000 [
b11000 o
b11000 z
1)
#85
0)
#90
17
b1010 A
b1010 F
b1010 I
b1010 M
b1010 ]
b1010 c
b1010 g
b1010 '"
19
1:
0D
b10 E
b10 H
b10 K
b110000010 L
b0 V
b0 }
b0 ""
b0 (
b0 /
b0 2
b0 @
b0 \
b0 b
b0 {
b0 _
b0 f
b111 R
b111 `
b111 d
b111 h
b111 +"
b1000000010101000 T
b1000000010101000 k
b1000000010101000 q
b1100 S
b1100 a
b1100 e
b1100 i
b1100 %"
b111 &
b111 +
b111 1
b111 8
b111 Q
b111 $"
b111 )"
b100 P
b100 #"
b100 ."
b10000000101010 U
b10000000101010 l
b10000000101010 ("
b10000000101010 *"
b100000 Y
b100000 x
b100000 y
b0 C
b0 J
b101010 B
b101010 G
b1100100001000000010101000 w
b11 ~
b100 !"
b100 ,"
b100 -"
b10000000101010 &"
b100000 X
b100000 u
b100000 v
b11001000010000000101010 .
b11001000010000000101010 4
b11001000010000000101010 5
b11001000010000000101010 N
b111 3
b1000000011001000 Z
b1000000011001000 r
b1000000011001000 t
b100000 W
b100000 n
b100000 p
b100000 s
b11100 -
b11100 <
b11100 [
b11100 o
b11100 z
1)
#95
0)
#100
1;
09
0:
1D
b1 E
b1 H
b1 K
b100001 L
b10 A
b10 F
b10 I
b10 M
b10 ]
b10 c
b10 g
b10 '"
b100 T
b100 k
b100 q
b0 S
b0 a
b0 e
b0 i
b0 %"
b0 P
b0 #"
b0 ."
b1 U
b1 l
b1 ("
b1 *"
b0 R
b0 `
b0 d
b0 h
b0 +"
b101000 Y
b101000 x
b101000 y
b100 C
b100 J
b1 B
b1 G
b10000000000000000000000100 w
b100 ~
b0 !"
b0 ,"
b0 -"
b1 &"
b0 &
b0 +
b0 1
b0 8
b0 Q
b0 $"
b0 )"
b101000 X
b101000 u
b101000 v
b10000100000000000000000000001 .
b10000100000000000000000000001 4
b10000100000000000000000000001 5
b10000100000000000000000000001 N
b1000 3
b101000 Z
b101000 r
b101000 t
b100100 W
b100100 n
b100100 p
b100100 s
b100000 -
b100000 <
b100000 [
b100000 o
b100000 z
1)
#105
0)
#110
b1010 A
b1010 F
b1010 I
b1010 M
b1010 ]
b1010 c
b1010 g
b1010 '"
19
1:
0D
b10 E
b10 H
b10 K
b110000010 L
0;
b1 V
b1 }
b1 ""
07
b1 (
b1 /
b1 2
b1 @
b1 \
b1 b
b1 {
b1 _
b1 f
b101 R
b101 `
b101 d
b101 h
b101 +"
b1000000010101000 T
b1000000010101000 k
b1000000010101000 q
b11 S
b11 a
b11 e
b11 i
b11 %"
b101 &
b101 +
b101 1
b101 8
b101 Q
b101 $"
b101 )"
b100 P
b100 #"
b100 ."
b10000000101010 U
b10000000101010 l
b10000000101010 ("
b10000000101010 *"
b101100 Y
b101100 x
b101100 y
b0 C
b0 J
b101010 B
b101010 G
b11100010001000000010101000 w
b111 ~
b10 !"
b10 ,"
b100 -"
b10000000101010 &"
b101100 X
b101100 u
b101100 v
b111000100010000000101010 .
b111000100010000000101010 4
b111000100010000000101010 5
b111000100010000000101010 N
b1010 3
b1000000011010100 Z
b1000000011010100 r
b1000000011010100 t
b101100 W
b101100 n
b101100 p
b101100 s
b101000 -
b101000 <
b101000 [
b101000 o
b101000 z
1)
#115
0)
#120
b1100 V
b1100 }
b1100 ""
b1100 (
b1100 /
b1100 2
b1100 @
b1100 \
b1100 b
b1100 {
b1100 _
b1100 f
b0 A
b0 F
b0 I
b0 M
b0 ]
b0 c
b0 g
b0 '"
b1011 R
b1011 `
b1011 d
b1011 h
b1011 +"
b1110000010000000 T
b1110000010000000 k
b1110000010000000 q
b1 S
b1 a
b1 e
b1 i
b1 %"
b1011 &
b1011 +
b1011 1
b1011 8
b1011 Q
b1011 $"
b1011 )"
b111 P
b111 #"
b111 ."
b11100000100000 U
b11100000100000 l
b11100000100000 ("
b11100000100000 *"
b110000 Y
b110000 x
b110000 y
b100000 B
b100000 G
b10000101001110000010000000 w
b100 ~
b101 !"
b101 ,"
b111 -"
b11100000100000 &"
b110000 X
b110000 u
b110000 v
b100001010011100000100000 .
b100001010011100000100000 4
b100001010011100000100000 5
b100001010011100000100000 N
b1011 3
b1110000010110000 Z
b1110000010110000 r
b1110000010110000 t
b110000 W
b110000 n
b110000 p
b110000 s
b101100 -
b101100 <
b101100 [
b101100 o
b101100 z
1)
#125
0)
#130
b10 A
b10 F
b10 I
b10 M
b10 ]
b10 c
b10 g
b10 '"
b111 V
b111 }
b111 ""
b111 (
b111 /
b111 2
b111 @
b111 \
b111 b
b111 {
b111 _
b111 f
b101 R
b101 `
b101 d
b101 h
b101 +"
b1110000010001000 T
b1110000010001000 k
b1110000010001000 q
b1100 S
b1100 a
b1100 e
b1100 i
b1100 %"
b101 &
b101 +
b101 1
b101 8
b101 Q
b101 $"
b101 )"
b11100000100010 U
b11100000100010 l
b11100000100010 ("
b11100000100010 *"
b110100 Y
b110100 x
b110100 y
b100010 B
b100010 G
b11100010001110000010001000 w
b111 ~
b10 !"
b10 ,"
b11100000100010 &"
b110100 X
b110100 u
b110100 v
b111000100011100000100010 .
b111000100011100000100010 4
b111000100011100000100010 5
b111000100011100000100010 N
b1100 3
b1110000010111100 Z
b1110000010111100 r
b1110000010111100 t
b110100 W
b110100 n
b110100 p
b110100 s
b110000 -
b110000 <
b110000 [
b110000 o
b110000 z
1)
#135
0)
#140
09
0:
1?
1'
b0 E
b0 H
b0 K
b1010000 L
b0 A
b0 F
b0 I
b0 M
b0 ]
b0 c
b0 g
b0 '"
b1010000 V
b1010000 }
b1010000 ""
b1000100 R
b1000100 `
b1000100 d
b1000100 h
b1000100 +"
b100010000 T
b100010000 k
b100010000 q
b1010000 (
b1010000 /
b1010000 2
b1010000 @
b1010000 \
b1010000 b
b1010000 {
b111 &
b111 +
b111 1
b111 8
b111 Q
b111 $"
b111 )"
b111 P
b111 #"
b111 ."
b1000100 U
b1000100 l
b1000100 ("
b1000100 *"
b1010000 _
b1010000 f
b111000 Y
b111000 x
b111000 y
b101011 C
b101011 J
b100 B
b100 G
b1100111000000000100010000 w
b11 ~
b111 !"
b111 ,"
b0 -"
b1000100 &"
b1100 S
b1100 a
b1100 e
b1100 i
b1100 %"
b111000 X
b111000 u
b111000 v
b10101100011001110000000001000100 .
b10101100011001110000000001000100 4
b10101100011001110000000001000100 5
b10101100011001110000000001000100 N
b1101 3
b101001000 Z
b101001000 r
b101001000 t
b111000 W
b111000 n
b111000 p
b111000 s
b110100 -
b110100 <
b110100 [
b110100 o
b110100 z
1)
#145
0)
#150
b111 V
b111 }
b111 ""
19
0'
1=
b101001000 L
b1010000 R
b1010000 `
b1010000 d
b1010000 h
b1010000 +"
b101000000 T
b101000000 k
b101000000 q
b0 S
b0 a
b0 e
b0 i
b0 %"
b101 &
b101 +
b101 1
b101 8
b101 Q
b101 $"
b101 )"
b10 P
b10 #"
b10 ."
b1010000 U
b1010000 l
b1010000 ("
b1010000 *"
b111100 Y
b111100 x
b111100 y
b100011 C
b100011 J
b10000 B
b10000 G
b10000000000101000000 w
b0 ~
b10 !"
b10 ,"
b1010000 &"
b111100 X
b111100 u
b111100 v
b10001100000000100000000001010000 .
b10001100000000100000000001010000 4
b10001100000000100000000001010000 5
b10001100000000100000000001010000 N
b1110 3
b111 ,
b111 0
b111 6
b111 O
b111 |
b101111100 Z
b101111100 r
b101111100 t
b111100 W
b111100 n
b111100 p
b111100 s
b111000 -
b111000 <
b111000 [
b111000 o
b111000 z
1)
#155
0)
#160
17
09
0?
0=
1>
b100 L
b0 V
b0 }
b0 ""
bx ,
bx 0
bx 6
bx O
bx |
b0 (
b0 /
b0 2
b0 @
b0 \
b0 b
b0 {
b0 _
b0 f
b0 R
b0 `
b0 d
b0 h
b0 +"
b1000100 T
b1000100 k
b1000100 q
b0 P
b0 #"
b0 ."
b10001 U
b10001 l
b10001 ("
b10001 *"
b1000100 Y
b1000100 x
b1000100 y
b10 C
b10 J
b10001 B
b10001 G
b1000100 w
b0 !"
b0 ,"
b10001 &"
b0 &
b0 +
b0 1
b0 8
b0 Q
b0 $"
b0 )"
b1000000 X
b1000000 u
b1000000 v
b1000000000000000000000010001 .
b1000000000000000000000010001 4
b1000000000000000000000010001 5
b1000000000000000000000010001 N
b1111 3
b10000100 Z
b10000100 r
b10000100 t
b1000000 W
b1000000 n
b1000000 p
b1000000 s
b111100 -
b111100 <
b111100 [
b111100 o
b111100 z
1)
#165
0)
#170
1?
1'
0>
b1010000 L
b1010100 V
b1010100 }
b1010100 ""
07
b1010100 (
b1010100 /
b1010100 2
b1010100 @
b1010100 \
b1010100 b
b1010100 {
b1010100 _
b1010100 f
b1010100 R
b1010100 `
b1010100 d
b1010100 h
b1010100 +"
b101010000 T
b101010000 k
b101010000 q
b1001000 Y
b1001000 x
b1001000 y
b111 &
b111 +
b111 1
b111 8
b111 Q
b111 $"
b111 )"
b10 P
b10 #"
b10 ."
b1010100 U
b1010100 l
b1010100 ("
b1010100 *"
b101011 C
b101011 J
b10100 B
b10100 G
b10000000000101010000 w
b10 !"
b10 ,"
b1010100 &"
b1001000 X
b1001000 u
b1001000 v
b10101100000000100000000001010100 .
b10101100000000100000000001010100 4
b10101100000000100000000001010100 5
b10101100000000100000000001010100 N
b10001 3
b110011000 Z
b110011000 r
b110011000 t
b1001000 W
b1001000 n
b1001000 p
b1001000 s
b1000100 -
b1000100 <
b1000100 [
b1000100 o
b1000100 z
1)
